Influenza Data
…
influenza_df %>% 
  filter(start_date > "2009-04-06")

## # A tibble: 602 x 6
##    year   week start_date end_date   a_total b_total
##    <chr> <dbl> <chr>      <chr>        <dbl>   <dbl>
##  1 2009     16 2009-04-13 2009-04-19     153     186
##  2 2009     17 2009-04-20 2009-04-26     169     113
##  3 2009     18 2009-04-27 2009-05-03    3502     787
##  4 2009     19 2009-05-04 2009-05-10    4431     490
##  5 2009     20 2009-05-11 2009-05-17    2815     134
##  6 2009     21 2009-05-18 2009-05-24    3782      93
##  7 2009     22 2009-05-25 2009-05-31    4092      42
##  8 2009     23 2009-06-01 2009-06-07    4971      26
##  9 2009     24 2009-06-08 2009-06-14    5407      15
## 10 2009     25 2009-06-15 2009-06-21    5914       9
## # … with 592 more rows
